<?xml version="1.0" standalone="no"?>
<!DOCTYPE svg PUBLIC "-//W3C//DTD SVG 20010904//EN"
 "http://www.w3.org/TR/2001/REC-SVG-20010904/DTD/svg10.dtd">
<svg version="1.0" xmlns="http://www.w3.org/2000/svg"
 width="347.000000pt" height="347.000000pt" viewBox="0 0 347.000000 347.000000"
 preserveAspectRatio="xMidYMid meet">
<metadata>
Created by potrace 1.11, written by Peter Selinger 2001-2013
</metadata>
<g transform="translate(0.000000,347.000000) scale(0.100000,-0.100000)"
fill="#000000" stroke="none">
<path d="M1860 3282 c0 -4 -8 -9 -17 -10 -32 -3 -48 -7 -60 -15 -7 -5 -13 -5
-13 -1 0 3 -17 -6 -37 -22 -20 -15 -33 -21 -28 -13 5 8 -8 -2 -28 -22 -20 -21
-37 -42 -37 -49 0 -6 -4 -9 -8 -6 -4 2 -13 -8 -20 -23 -7 -15 -21 -37 -32 -49
-12 -12 -18 -22 -15 -22 4 0 0 -7 -7 -15 -29 -32 -39 -45 -33 -45 3 0 -3 -10
-15 -22 -11 -12 -20 -28 -20 -35 0 -7 -3 -13 -7 -13 -5 0 -21 -23 -38 -50 -16
-28 -33 -50 -38 -50 -4 0 -5 -4 -2 -10 3 -5 3 -10 -2 -10 -4 0 -17 -18 -27
-40 -10 -22 -22 -37 -26 -35 -5 3 -11 -6 -14 -20 -4 -14 -11 -25 -16 -25 -6 0
-10 -6 -10 -12 -1 -7 -9 -24 -20 -36 -20 -24 -20 -24 -70 -7 -28 9 -56 18 -63
19 -7 1 -17 5 -23 8 -6 4 -21 9 -35 12 -13 3 -53 12 -89 21 -35 9 -80 18 -99
21 -18 3 -43 8 -55 11 -30 7 -399 12 -411 4 -11 -6 -23 -9 -68 -15 -16 -3 -34
-9 -41 -15 -7 -6 -16 -8 -19 -4 -4 3 -7 0 -7 -7 0 -7 -3 -10 -7 -7 -9 9 -146
-67 -177 -98 -35 -35 -23 -31 25 7 22 17 70 42 107 54 57 18 86 21 192 19 255
-5 421 -41 577 -125 39 -21 75 -35 79 -32 4 4 4 1 0 -5 -4 -7 -2 -13 4 -13 6
0 20 -9 31 -19 l21 -19 -28 -43 c-16 -24 -27 -47 -26 -51 1 -5 -2 -8 -8 -8 -5
0 -16 -13 -24 -28 -13 -25 -13 -32 3 -68 18 -39 135 -164 154 -164 5 0 17 -8
26 -19 9 -10 45 -37 81 -60 36 -23 72 -46 80 -51 120 -78 154 -97 174 -98 5 0
12 -5 15 -10 9 -14 221 -124 221 -115 0 4 4 3 8 -3 10 -14 108 -64 126 -64 8
0 16 -3 18 -8 2 -4 55 -29 118 -56 158 -66 170 -72 210 -89 19 -8 58 -22 85
-32 28 -9 59 -21 70 -26 41 -19 253 -87 283 -92 46 -7 103 10 95 28 -3 8 -1
15 5 15 5 0 12 10 16 23 7 28 2 17 54 122 25 50 45 96 45 103 0 6 4 12 9 12 4
0 8 4 8 10 0 5 13 37 29 69 16 33 26 62 23 65 -3 4 0 6 6 6 7 0 11 3 10 8 -1
4 29 70 66 147 37 77 75 158 84 180 8 22 20 47 26 55 6 8 -3 4 -20 -8 -17 -12
-34 -19 -38 -15 -3 3 -6 2 -6 -4 0 -5 -6 -10 -12 -11 -17 -1 -39 -7 -62 -17
-33 -15 -236 -9 -236 6 0 4 -8 6 -17 5 -10 -2 -25 1 -33 6 -24 13 -74 31 -82
30 -5 -1 -8 3 -8 10 0 6 -3 9 -6 5 -4 -3 -13 1 -21 9 -8 8 -19 12 -24 9 -5 -4
-9 -3 -9 2 0 4 -23 21 -50 38 -28 16 -50 33 -50 39 0 5 -3 7 -6 3 -4 -3 -12
-1 -19 6 -7 7 -25 21 -41 32 -15 11 -39 30 -52 43 -14 12 -29 22 -33 22 -5 0
-9 6 -9 13 0 8 -11 20 -25 27 -13 7 -27 21 -30 31 -4 10 -17 27 -30 37 -13 11
-21 22 -18 26 3 3 1 6 -5 6 -7 0 -12 4 -12 10 0 5 -10 21 -21 34 -60 69 -100
240 -72 306 3 8 6 18 5 21 -1 4 9 18 22 32 13 14 22 28 19 30 -2 3 12 11 31
18 20 7 36 17 36 22 0 5 6 7 13 4 8 -3 20 -1 28 4 10 6 6 9 -16 10 -16 0 -43
2 -60 4 -167 15 -211 22 -227 31 -4 3 -18 7 -29 9 -12 3 -29 11 -38 19 -9 8
-28 18 -43 21 -16 4 -28 11 -28 16 0 5 -13 15 -29 23 -16 9 -32 27 -35 42 -12
47 21 56 217 64 4 0 7 5 7 10 0 6 -38 10 -95 10 -52 0 -95 -4 -95 -8z"/>
<path d="M1990 3216 c-24 -6 -45 -16 -47 -21 -3 -9 39 -41 59 -45 4 0 20 -7
35 -15 14 -8 30 -12 35 -9 4 3 8 1 8 -5 0 -5 8 -8 18 -6 9 1 24 -1 33 -6 9 -4
34 -11 55 -14 22 -3 53 -8 69 -10 36 -6 80 -13 115 -17 14 -2 31 -7 38 -11 6
-5 12 -6 12 -3 0 5 66 -16 130 -41 8 -4 18 -7 23 -8 4 -2 10 -4 15 -5 4 -1 10
-2 15 -1 4 0 7 -3 7 -9 0 -5 7 -10 15 -10 9 0 34 -9 56 -21 23 -11 44 -18 47
-15 3 3 0 6 -6 6 -6 0 -20 10 -32 22 -11 12 -20 18 -20 12 0 -5 -4 -4 -8 2 -4
6 -29 24 -57 39 -27 16 -53 34 -57 40 -4 5 -8 6 -8 2 0 -5 -13 1 -30 13 -16
12 -30 18 -30 14 0 -3 -7 -1 -16 7 -13 11 -89 42 -129 53 -5 2 -17 6 -25 9
-25 10 -182 48 -231 56 -25 4 -64 3 -89 -3z"/>
<path d="M2475 2907 c-93 -23 -124 -134 -57 -203 15 -15 20 -24 12 -20 -8 4
-4 -2 9 -13 13 -12 20 -21 16 -21 -5 0 4 -11 19 -25 15 -14 24 -25 21 -25 -4
0 9 -15 27 -32 73 -70 106 -96 112 -91 3 4 6 1 6 -5 0 -7 6 -12 14 -12 8 0 16
-4 18 -9 2 -7 100 -62 118 -66 3 -1 17 -7 31 -13 85 -35 228 -50 295 -30 22 7
43 10 49 9 5 -1 7 0 3 4 -3 4 2 15 13 26 23 23 24 48 4 95 -8 19 -14 36 -15
39 0 2 -12 17 -25 31 -14 15 -25 33 -25 41 0 8 -4 12 -8 9 -5 -3 -30 19 -57
49 -26 30 -57 57 -67 61 -10 3 -16 9 -13 14 3 5 -3 11 -12 14 -10 3 -33 19
-52 35 -19 17 -38 28 -42 25 -4 -2 -10 3 -13 12 -3 8 -10 13 -15 10 -5 -3 -14
1 -21 9 -7 8 -16 12 -21 9 -5 -3 -9 0 -9 5 0 6 -7 11 -15 11 -9 0 -29 7 -45
15 -16 8 -37 16 -47 18 -10 1 -22 5 -28 9 -5 3 -32 9 -58 12 -27 4 -56 9 -65
10 -10 2 -35 -2 -57 -7z"/>
<path d="M55 2250 c3 -5 8 -10 11 -10 2 0 4 5 4 10 0 6 -5 10 -11 10 -5 0 -7
-4 -4 -10z"/>
<path d="M1024 2225 c5 -40 16 -65 27 -65 14 0 10 22 -12 60 l-19 35 4 -30z"/>
<path d="M70 2224 c0 -20 31 -74 48 -84 9 -5 13 -10 9 -10 -5 0 7 -14 25 -30
37 -34 41 -49 18 -67 -8 -7 -11 -13 -6 -13 5 0 1 -9 -10 -21 -10 -12 -18 -24
-18 -28 1 -3 -7 -23 -17 -43 -10 -20 -26 -59 -35 -85 -8 -26 -18 -55 -21 -63
-6 -16 -8 -21 -17 -60 -38 -163 -46 -276 -32 -415 10 -93 14 -117 32 -187 3
-13 6 -30 7 -38 1 -8 6 -18 10 -21 5 -3 9 -12 10 -20 2 -8 6 -20 10 -26 5 -7
5 -13 1 -13 -3 0 -1 -7 6 -15 7 -8 9 -15 5 -15 -4 0 -2 -7 5 -15 7 -8 10 -15
6 -15 -3 0 5 -18 19 -40 14 -22 22 -40 19 -40 -4 0 1 -9 11 -20 10 -11 14 -20
9 -20 -5 0 -1 -5 9 -11 9 -6 15 -14 12 -20 -4 -5 -1 -9 6 -9 7 0 10 -3 6 -6
-5 -5 10 -27 41 -60 7 -8 10 -14 5 -14 -4 0 0 -5 10 -11 9 -5 17 -16 17 -23 0
-7 13 -23 30 -36 16 -12 27 -28 23 -34 -3 -6 -3 -8 2 -4 4 4 40 -25 78 -65 39
-39 67 -65 63 -57 -4 8 1 5 12 -7 11 -13 25 -23 30 -23 6 0 12 -3 14 -7 4 -10
65 -53 74 -53 4 0 13 -8 21 -17 9 -11 11 -12 7 -3 -6 12 -4 12 12 -1 28 -25
121 -69 128 -62 3 4 6 1 6 -5 0 -7 3 -11 7 -11 5 1 11 0 16 -1 4 -1 10 -3 15
-5 4 -1 20 -7 36 -14 16 -6 38 -13 50 -16 11 -2 22 -4 24 -6 1 -1 7 -3 12 -4
6 -1 11 -3 13 -5 3 -2 33 -8 77 -15 192 -31 373 -23 533 21 29 8 60 16 69 18
9 3 26 10 37 16 12 6 21 8 21 5 0 -3 10 0 23 7 12 7 25 11 30 10 4 -1 7 2 7 8
0 6 3 9 8 8 11 -2 45 13 66 31 16 13 18 13 12 1 -5 -9 -2 -8 7 2 8 10 17 15
20 11 4 -3 7 0 7 7 0 7 3 10 7 7 3 -4 12 1 20 11 10 11 12 12 8 2 -4 -8 2 -5
12 7 10 12 25 23 33 25 8 2 25 13 37 26 12 12 25 22 29 22 4 0 13 8 21 18 8 9
11 11 7 3 -4 -8 26 19 67 59 41 41 74 77 74 81 0 4 9 17 20 27 27 26 60 66 60
72 0 3 10 16 22 29 12 13 20 28 17 33 -3 4 0 8 6 8 6 0 8 5 5 10 -3 6 -2 10 4
10 6 0 13 11 17 25 3 14 10 25 15 25 5 0 9 9 9 20 0 11 4 20 9 20 5 0 12 12
17 28 10 35 9 32 23 67 8 17 16 41 20 55 7 25 35 34 56 19 6 -4 15 -8 20 -10
18 -3 59 -21 90 -37 17 -9 31 -15 33 -14 1 1 16 -5 32 -13 16 -8 32 -15 35
-15 3 0 22 -7 43 -16 20 -9 42 -17 47 -18 6 -1 20 -7 31 -14 12 -6 24 -8 28
-5 3 3 6 1 6 -5 0 -7 3 -11 8 -10 4 1 21 -4 37 -11 71 -27 112 -44 134 -55 13
-6 29 -11 35 -11 6 0 28 -8 50 -18 21 -9 45 -17 52 -17 8 0 14 -3 14 -8 0 -6
44 -24 90 -36 8 -3 31 -11 50 -19 19 -8 44 -18 55 -22 11 -5 26 -7 33 -6 6 1
12 -3 12 -9 0 -6 4 -9 9 -6 5 4 12 0 14 -6 3 -7 6 -4 6 8 1 24 -69 80 -79 64
-4 -6 -22 0 -44 15 -20 14 -39 25 -42 25 -3 0 -18 8 -32 19 -15 10 -79 45
-142 78 -420 220 -508 262 -642 307 -56 19 -501 139 -553 150 -5 1 -15 5 -22
9 -6 4 -23 8 -37 9 -14 1 -26 5 -26 9 0 3 -6 6 -12 6 -7 0 -37 10 -65 22 -29
11 -53 18 -53 15 0 -4 -6 -2 -12 3 -7 6 -47 22 -88 36 -41 14 -113 40 -160 57
-47 17 -87 31 -90 32 -3 0 -14 4 -25 8 -11 4 -105 39 -210 78 -257 96 -278
105 -369 146 -43 20 -85 36 -92 36 -8 0 -14 3 -14 8 0 4 -33 23 -72 42 -86 40
-272 149 -276 162 -2 4 -9 8 -16 8 -7 0 -25 11 -40 25 -15 14 -29 25 -32 25
-11 0 -83 77 -103 110 -11 19 -21 30 -21 24z m240 -252 c24 -23 163 -95 176
-92 4 1 10 -2 13 -7 10 -14 217 -114 240 -116 12 -1 21 -4 21 -7 0 -5 55 -29
80 -35 3 -1 19 -7 35 -14 17 -7 89 -35 160 -61 72 -27 211 -80 310 -118 99
-39 234 -91 300 -116 66 -26 129 -51 140 -56 11 -5 45 -19 75 -30 86 -34 93
-37 132 -54 20 -9 38 -16 41 -16 2 0 22 -8 43 -17 22 -9 41 -17 44 -18 3 0 27
-11 54 -23 27 -12 52 -22 55 -22 4 0 31 -11 59 -25 29 -14 56 -25 61 -25 5 0
11 -9 14 -20 3 -11 1 -20 -4 -20 -5 0 -9 -7 -9 -15 0 -9 -13 -45 -29 -80 -17
-36 -27 -65 -24 -65 3 0 -2 -9 -12 -20 -10 -11 -14 -20 -9 -20 5 0 4 -4 -2 -8
-5 -4 -27 -34 -46 -67 -45 -74 -74 -110 -157 -195 -36 -36 -64 -69 -62 -75 1
-5 0 -7 -4 -3 -4 4 -41 -18 -82 -49 -167 -123 -416 -210 -628 -217 l-30 -1 -2
70 c-2 69 -15 95 -48 95 -33 0 -47 -27 -50 -96 -1 -38 -6 -68 -11 -68 -18 4
-110 16 -129 19 -92 10 -261 74 -380 144 -33 20 -64 34 -68 33 -5 -1 -6 2 -2
8 3 5 2 10 -3 10 -30 0 -207 169 -263 252 -14 21 -29 35 -34 30 -5 -4 -5 -2
-2 5 4 6 2 18 -5 25 -17 18 -34 48 -75 129 -61 122 -102 275 -110 412 l-5 87
61 0 c49 0 62 4 74 21 16 22 12 55 -7 66 -6 4 -31 8 -56 9 -25 1 -50 3 -57 3
-11 1 -10 51 2 91 2 8 7 33 11 54 3 22 15 69 27 105 12 36 21 72 20 79 0 6 3
12 7 12 7 0 32 59 29 69 0 2 3 7 8 10 4 3 17 22 27 43 21 40 32 39 86 -10z"/>
<path d="M588 1666 c-24 -12 -33 -60 -16 -83 7 -9 116 -48 163 -57 6 -2 57
-17 115 -35 58 -19 110 -34 115 -35 6 -1 15 -4 20 -7 6 -4 24 -10 40 -14 17
-5 35 -10 40 -11 6 -2 17 -5 25 -7 45 -10 99 -33 126 -54 50 -37 120 -26 143
24 21 45 14 57 -41 77 -79 29 -181 55 -190 50 -4 -3 -8 -1 -8 4 0 8 -76 32
-112 35 -10 1 -18 6 -18 11 0 5 -3 7 -6 3 -4 -3 -20 1 -36 9 -16 9 -36 13 -43
11 -7 -3 -16 -2 -21 3 -5 4 -49 20 -99 35 -49 15 -109 33 -132 40 -32 10 -47
10 -65 1z"/>
<path d="M1057 2154 c-6 -7 22 -42 78 -95 50 -47 128 -109 133 -105 1 2 17
-10 33 -25 17 -16 37 -29 45 -29 8 0 14 -4 14 -10 0 -5 7 -10 15 -10 8 0 15
-4 15 -10 0 -5 5 -10 12 -10 6 0 25 -10 42 -23 47 -35 126 -79 126 -70 0 4 4
3 8 -3 11 -17 252 -137 252 -126 0 4 4 3 8 -3 11 -15 299 -155 327 -159 8 -1
18 -5 22 -10 13 -12 96 -46 101 -41 7 7 -3 16 -20 19 -7 1 -23 8 -35 14 -13 7
-23 10 -23 6 0 -4 -8 -1 -17 7 -23 19 -89 49 -108 49 -7 0 -15 3 -17 8 -3 6
-24 17 -98 51 -14 6 -32 15 -40 20 -37 24 -203 101 -216 101 -8 0 -14 5 -14
10 0 6 -6 10 -12 10 -7 0 -39 16 -72 35 -32 20 -63 37 -69 38 -6 1 -19 9 -29
17 -10 8 -22 15 -26 15 -4 0 -14 6 -22 13 -24 21 -121 82 -130 82 -5 0 -10 3
-12 8 -7 16 -79 63 -88 57 -6 -4 -9 -1 -8 5 2 7 -6 17 -16 23 -35 22 -126 110
-131 129 -6 18 -17 23 -28 12z"/>
<path d="M2300 1422 c0 -8 83 -41 183 -72 31 -10 57 -14 57 -9 0 8 -18 15 -61
23 -8 2 -25 7 -39 13 -81 33 -140 52 -140 45z"/>
<path d="M2550 1341 c0 -13 29 -22 115 -36 75 -12 108 -15 103 -10 -3 4 -21 9
-40 11 -66 9 -143 26 -160 35 -11 6 -18 6 -18 0z"/>
</g>
</svg>
